[
    {
        "id": 1,
        "fecha": "11/14/2019",
        "importe": 98,
        "latitud": 51.1656869,
        "longitud": 71.4439333
    },
    {
        "id": 2,
        "fecha": "8/21/2019",
        "importe": 36,
        "latitud": 17.3026058,
        "longitud": -62.7176924
    },
    {
        "id": 3,
        "fecha": "2/1/2020",
        "importe": 80,
        "latitud": 53.126506,
        "longitud": 92.94376
    },
    {
        "id": 4,
        "fecha": "7/30/2019",
        "importe": 24,
        "latitud": 28.901462,
        "longitud": 118.511235
    },
    {
        "id": 5,
        "fecha": "1/7/2020",
        "importe": 5,
        "latitud": 25.111382,
        "longitud": 117.549211
    },
    {
        "id": 6,
        "fecha": "7/22/2019",
        "importe": 60,
        "latitud": 34.17,
        "longitud": -118.12
    },
    {
        "id": 7,
        "fecha": "8/16/2019",
        "importe": 60,
        "latitud": 48.9046462,
        "longitud": 89.6511373
    },
    {
        "id": 8,
        "fecha": "7/17/2019",
        "importe": 82,
        "latitud": -8.7678593,
        "longitud": 160.6960306
    },
    {
        "id": 9,
        "fecha": "8/23/2019",
        "importe": 29,
        "latitud": 55.775282,
        "longitud": 37.61479
    },
    {
        "id": 10,
        "fecha": "3/31/2020",
        "importe": 26,
        "latitud": 41.4564504,
        "longitud": 126.6441618
    }
]